…
Ind1 <- Ind1 %>%
  select(pidp, a_sex_dv, a_age_dv, a_vote6)
Ind2 <- read_tsv("data/UKDA-6614-tab/tab/ukhls_w2/b_indresp.tab")
Ind2 <- Ind2 %>%
  select(pidp, b_sex_dv, b_age_dv, b_vote6)
Ind3 <- read_tsv("data/UKDA-6614-tab/tab/ukhls_w3/c_indresp.tab")
Ind3 <- Ind3 %>%
  select(pidp, c_sex_dv, c_age_dv, c_vote6)
Wide <- Ind1 %>%
  full_join(Ind2, by = "pidp") %>%
  full_join(Ind3, by = "pidp")
Wide
```

    ## # A tibble: 70,586 x 10
    ##      pidp a_sex_dv a_age_dv a_vote6 b_sex_dv b_age_dv b_vote6 c_sex_dv c_age_dv
    ##     <dbl>    <dbl>    <dbl>   <dbl>    <dbl>    <dbl>   <dbl>    <dbl>    <dbl>
    ##  1 6.80e7        1       39       3       NA       NA      NA       NA       NA
    ##  2 6.80e7        1       59       2        1       60       2        1       61
    ##  3 6.80e7        2       39       4        2       40       4        2       41
    ##  4 6.80e7        2       17       4       NA       NA      NA        2       19
    ##  5 6.80e7        2       72       4        2       73       4        2       74
    ##  6 6.80e7        2       57       1        2       58       2        2       59
    ##  7 6.80e7        1       59      -7       NA       NA      NA       NA       NA
    ##  8 6.80e7        1       25      -7       NA       NA      NA       NA       NA
    ##  9 6.80e7        1       22      -7       NA       NA      NA       NA       NA
    ## 10 6.80e7        2       38       3        2       39       4       NA       NA
    ## # … with 70,576 more rows, and 1 more variable: c_vote6 <dbl>

``` r
# convert to long
Long <- Wide %>%
  gather(a_sex_dv:c_vote6, key = "variable", value = "value") %>%
  separate(variable, into = c("wave", "variable"), sep = "_", extra = "merge") %>%
  spread(key = variable, value = value)
Long
```

    ## # A tibble: 211,758 x 5
    ##      pidp wave  age_dv sex_dv vote6
    ##     <dbl> <chr>  <dbl>  <dbl> <dbl>
    ##  1 280165 a         NA     NA    NA
    ##  2 280165 b         31      2     2
    ##  3 280165 c         32      2    -7
    ##  4 541285 a         NA     NA    NA
    ##  5 541285 b         NA     NA    NA
    ##  6 541285 c         25      1    -7
    ##  7 541965 a         NA     NA    NA
    ##  8 541965 b         NA     NA    NA
    ##  9 541965 c         23      2    -7
    ## 10 665045 a         NA     NA    NA
    ## # … with 211,748 more rows
…
